%YAML 1.1
%TAG !u! tag:unity3d.com,2011:
--- !u!1045 &1
EditorBuildSettings:
  m_ObjectHideFlags: 0
  serializedVersion: 2
  m_Scenes:
  - enabled: 1
    path: Assets/Scenes/Menu.unity
    guid: ba30ef9ce1d2f3943b0e336c343bff26
  - enabled: 1
    path: Assets/Scenes/Prototype_01.unity
    guid: 9fc0d4010bbf28b4594072e72b8655ab
  m_configObjects: {}
